<?xml version="1.0" encoding="utf-8"?>
<!-- Generator: Adobe Illustrator 16.0.0, SVG Export Plug-In . SVG Version: 6.00 Build 0)  -->
<!DOCTYPE svg PUBLIC "-//W3C//DTD SVG 1.1//EN" "http://www.w3.org/Graphics/SVG/1.1/DTD/svg11.dtd">
<svg version="1.1" id="Layer_1" xmlns="http://www.w3.org/2000/svg" xmlns:xlink="http://www.w3.org/1999/xlink" x="0px" y="0px"
	 width="168.189px" height="66.113px" viewBox="0 0 168.189 66.113" enable-background="new 0 0 168.189 66.113"
	 xml:space="preserve">
<g>
	<defs>
		<rect id="SVGID_1_" y="0" width="168.189" height="66.113"/>
	</defs>
	<clipPath id="SVGID_2_">
		<use xlink:href="#SVGID_1_"  overflow="visible"/>
	</clipPath>
	<path clip-path="url(#SVGID_2_)" fill="#12110C" d="M94.735,6.241c-0.064-0.437-0.21-0.838-0.438-1.202
		c-0.227-0.364-0.51-0.684-0.85-0.959s-0.725-0.49-1.153-0.644c-0.429-0.153-0.879-0.23-1.348-0.23
		c-0.858,0-1.587,0.166-2.186,0.497c-0.6,0.332-1.085,0.778-1.457,1.336s-0.643,1.194-0.813,1.906
		c-0.17,0.713-0.255,1.449-0.255,2.21c0,0.729,0.085,1.437,0.255,2.125c0.171,0.688,0.441,1.307,0.813,1.857
		c0.372,0.551,0.857,0.992,1.457,1.324c0.599,0.332,1.327,0.497,2.186,0.497c1.166,0,2.076-0.36,2.731-1.08
		c0.655-0.72,1.057-1.655,1.202-2.805h3.691c-0.098,1.085-0.349,2.064-0.753,2.938c-0.405,0.874-0.939,1.619-1.604,2.235
		c-0.664,0.615-1.439,1.088-2.33,1.42c-0.891,0.331-1.87,0.498-2.938,0.498c-1.344,0-2.542-0.235-3.594-0.704
		c-1.053-0.47-1.942-1.109-2.672-1.919c-0.728-0.809-1.287-1.764-1.674-2.865c-0.389-1.101-0.583-2.275-0.583-3.521
		c0-1.279,0.194-2.477,0.583-3.594c0.388-1.117,0.947-2.088,1.674-2.914c0.729-0.826,1.619-1.473,2.672-1.942
		C88.405,0.234,89.604,0,90.947,0c0.955,0,1.857,0.137,2.707,0.412c0.851,0.276,1.61,0.676,2.283,1.202
		c0.672,0.527,1.226,1.178,1.662,1.955c0.438,0.777,0.714,1.667,0.826,2.671H94.735z"/>
	<path clip-path="url(#SVGID_2_)" fill="#12110C" d="M107.411,11.607c-0.146,0.129-0.328,0.23-0.547,0.303
		c-0.218,0.073-0.453,0.134-0.704,0.182c-0.251,0.049-0.519,0.089-0.801,0.122c-0.284,0.032-0.556,0.073-0.813,0.121
		c-0.276,0.049-0.535,0.113-0.778,0.194c-0.241,0.082-0.457,0.191-0.644,0.328c-0.186,0.138-0.335,0.316-0.448,0.535
		c-0.114,0.218-0.17,0.481-0.17,0.788c0,0.325,0.056,0.588,0.17,0.79c0.113,0.203,0.268,0.364,0.461,0.485
		c0.194,0.122,0.421,0.207,0.681,0.255c0.259,0.049,0.525,0.073,0.802,0.073c0.679,0,1.205-0.113,1.577-0.34
		c0.373-0.226,0.647-0.497,0.826-0.813c0.178-0.316,0.286-0.636,0.327-0.959c0.041-0.324,0.062-0.583,0.062-0.778V11.607z
		 M99.446,9.057c0.049-0.809,0.251-1.481,0.606-2.016c0.356-0.534,0.811-0.963,1.36-1.287c0.55-0.323,1.165-0.554,1.846-0.692
		c0.68-0.137,1.375-0.206,2.088-0.206c0.631,0,1.271,0.045,1.918,0.134s1.238,0.263,1.773,0.522
		c0.534,0.259,0.971,0.623,1.311,1.092c0.341,0.47,0.511,1.077,0.511,1.822v6.531c0,0.567,0.031,1.109,0.097,1.627
		c0.063,0.519,0.178,0.907,0.34,1.166H107.8c-0.065-0.194-0.118-0.392-0.159-0.595c-0.04-0.202-0.068-0.408-0.085-0.619
		c-0.55,0.567-1.197,0.968-1.941,1.202c-0.745,0.234-1.506,0.352-2.283,0.352c-0.599,0-1.157-0.077-1.675-0.231
		c-0.519-0.153-0.972-0.384-1.36-0.692c-0.389-0.307-0.692-0.696-0.911-1.165c-0.218-0.469-0.327-1.028-0.327-1.676
		c0-0.712,0.121-1.299,0.364-1.76s0.566-0.83,0.971-1.105s0.862-0.482,1.372-0.619c0.511-0.138,1.032-0.247,1.566-0.328
		c0.535-0.081,1.044-0.146,1.53-0.194c0.485-0.049,0.919-0.122,1.299-0.219c0.38-0.097,0.684-0.239,0.911-0.425
		c0.226-0.186,0.34-0.457,0.34-0.813c0-0.373-0.062-0.668-0.183-0.887c-0.121-0.218-0.283-0.388-0.485-0.509
		c-0.203-0.122-0.438-0.203-0.704-0.244c-0.267-0.04-0.555-0.06-0.862-0.06c-0.664,0-1.194,0.146-1.591,0.437
		s-0.627,0.777-0.692,1.457H99.446z"/>
	<path clip-path="url(#SVGID_2_)" fill="#12110C" d="M116.687,5.196h2.524v2.307h-2.524v6.216c0,0.583,0.097,0.972,0.291,1.166
		s0.583,0.291,1.166,0.291c0.388,0,0.744-0.032,1.067-0.097v2.695c-0.291,0.049-0.614,0.081-0.971,0.098
		c-0.355,0.015-0.704,0.024-1.044,0.024c-0.534,0-1.04-0.037-1.518-0.109c-0.479-0.073-0.898-0.219-1.263-0.437
		c-0.364-0.219-0.651-0.522-0.861-0.911c-0.211-0.389-0.316-0.898-0.316-1.53V7.503h-2.088V5.196h2.088V1.432h3.448V5.196z"/>
	<path clip-path="url(#SVGID_2_)" fill="#12110C" d="M120.013,0.413h3.448v6.532h0.073c0.437-0.712,0.996-1.238,1.676-1.578
		c0.68-0.34,1.343-0.51,1.991-0.51c0.922,0,1.679,0.126,2.27,0.376c0.591,0.251,1.057,0.599,1.396,1.044
		c0.34,0.446,0.579,0.988,0.717,1.627c0.137,0.64,0.206,1.348,0.206,2.125v7.722h-3.448v-7.09c0-1.037-0.167-1.81-0.498-2.32
		c-0.332-0.509-0.903-0.764-1.712-0.764c-0.938,0-1.619,0.279-2.039,0.837c-0.421,0.559-0.632,1.478-0.632,2.757v6.58h-3.448V0.413z
		"/>
	<path clip-path="url(#SVGID_2_)" fill="#12110C" d="M136.161,12.955c0.096,0.478,0.262,0.907,0.497,1.287s0.547,0.684,0.936,0.91
		c0.388,0.227,0.874,0.34,1.457,0.34c0.582,0,1.071-0.113,1.469-0.34c0.396-0.226,0.712-0.53,0.946-0.91
		c0.235-0.38,0.401-0.809,0.498-1.287c0.098-0.478,0.146-0.967,0.146-1.469s-0.049-0.996-0.146-1.482
		c-0.097-0.485-0.263-0.914-0.498-1.286c-0.234-0.373-0.55-0.676-0.946-0.911c-0.397-0.234-0.887-0.352-1.469-0.352
		c-0.583,0-1.069,0.118-1.457,0.352c-0.389,0.235-0.7,0.538-0.936,0.911c-0.235,0.372-0.401,0.801-0.497,1.286
		c-0.098,0.486-0.146,0.98-0.146,1.482S136.063,12.477,136.161,12.955 M133.028,8.754c0.307-0.817,0.744-1.513,1.311-2.089
		c0.566-0.574,1.247-1.019,2.04-1.335s1.684-0.474,2.672-0.474c0.986,0,1.882,0.158,2.683,0.474s1.485,0.761,2.052,1.335
		c0.566,0.576,1.004,1.272,1.312,2.089c0.308,0.818,0.462,1.728,0.462,2.732c0,1.004-0.154,1.91-0.462,2.719
		c-0.308,0.81-0.745,1.502-1.312,2.077c-0.566,0.574-1.251,1.019-2.052,1.335s-1.696,0.474-2.683,0.474
		c-0.988,0-1.879-0.158-2.672-0.474s-1.474-0.761-2.04-1.335c-0.566-0.575-1.004-1.267-1.311-2.077
		c-0.308-0.809-0.462-1.715-0.462-2.719C132.566,10.481,132.721,9.572,133.028,8.754"/>
</g>
<rect x="146.432" y="0.412" fill="#12110C" width="3.448" height="17.338"/>
<path fill="#12110C" d="M151.482,5.196h3.448V17.75h-3.448V5.196z M154.931,3.254h-3.448V0.413h3.448V3.254z"/>
<g>
	<defs>
		<rect id="SVGID_3_" y="0" width="168.189" height="66.113"/>
	</defs>
	<clipPath id="SVGID_4_">
		<use xlink:href="#SVGID_3_"  overflow="visible"/>
	</clipPath>
	<path clip-path="url(#SVGID_4_)" fill="#12110C" d="M164.74,9.616c-0.227-1.44-1.075-2.161-2.55-2.161
		c-0.55,0-1.011,0.125-1.384,0.376c-0.372,0.251-0.676,0.575-0.91,0.972c-0.234,0.396-0.4,0.837-0.498,1.323
		c-0.097,0.486-0.146,0.955-0.146,1.408c0,0.454,0.049,0.915,0.146,1.385c0.098,0.469,0.255,0.894,0.474,1.274
		c0.219,0.381,0.514,0.692,0.887,0.935c0.372,0.243,0.826,0.364,1.36,0.364c0.809,0,1.439-0.23,1.894-0.692
		c0.453-0.461,0.736-1.08,0.85-1.857h3.326c-0.227,1.667-0.874,2.942-1.941,3.824c-1.069,0.883-2.438,1.324-4.104,1.324
		c-0.955,0-1.821-0.158-2.599-0.474c-0.776-0.316-1.44-0.761-1.991-1.335c-0.55-0.575-0.979-1.255-1.287-2.04
		c-0.307-0.785-0.461-1.647-0.461-2.586c0-0.972,0.142-1.874,0.425-2.708c0.283-0.833,0.7-1.554,1.251-2.161
		c0.55-0.607,1.223-1.081,2.016-1.42c0.793-0.34,1.699-0.511,2.72-0.511c0.744,0,1.461,0.098,2.148,0.292
		c0.688,0.194,1.3,0.49,1.833,0.887c0.534,0.396,0.976,0.894,1.324,1.493s0.546,1.295,0.594,2.088H164.74z"/>
	<path clip-path="url(#SVGID_4_)" fill="#12110C" d="M85.775,31.942c0,0.583,0.104,1.077,0.315,1.481
		c0.21,0.405,0.489,0.732,0.837,0.983c0.349,0.251,0.753,0.438,1.215,0.559c0.461,0.122,0.951,0.183,1.47,0.183
		c0.34,0,0.703-0.027,1.093-0.086c0.388-0.056,0.752-0.165,1.092-0.327s0.623-0.385,0.85-0.668c0.228-0.283,0.341-0.644,0.341-1.081
		c0-0.469-0.15-0.85-0.449-1.141c-0.3-0.291-0.692-0.538-1.178-0.741c-0.485-0.201-1.036-0.372-1.651-0.509
		c-0.615-0.138-1.238-0.296-1.87-0.474c-0.646-0.162-1.279-0.36-1.894-0.595c-0.616-0.234-1.165-0.538-1.651-0.911
		c-0.486-0.372-0.879-0.833-1.177-1.383c-0.3-0.551-0.45-1.231-0.45-2.04c0-0.89,0.19-1.664,0.571-2.32
		c0.38-0.655,0.878-1.201,1.493-1.638c0.615-0.437,1.313-0.761,2.089-0.972c0.777-0.21,1.554-0.315,2.332-0.315
		c0.905,0,1.775,0.101,2.609,0.303c0.833,0.203,1.574,0.531,2.222,0.984c0.647,0.453,1.161,1.032,1.543,1.736
		c0.38,0.704,0.569,1.558,0.569,2.562h-3.69c-0.033-0.518-0.143-0.947-0.327-1.288c-0.188-0.339-0.435-0.606-0.741-0.801
		c-0.308-0.194-0.664-0.331-1.069-0.413c-0.404-0.08-0.834-0.121-1.286-0.121c-0.308,0-0.615,0.033-0.923,0.097
		c-0.308,0.065-0.587,0.179-0.838,0.34c-0.251,0.162-0.458,0.369-0.619,0.619c-0.162,0.251-0.243,0.555-0.243,0.911
		c0,0.34,0.064,0.616,0.194,0.826c0.129,0.21,0.384,0.4,0.766,0.57c0.38,0.17,0.905,0.349,1.577,0.534
		c0.673,0.187,1.552,0.417,2.636,0.693c0.211,0.048,0.485,0.117,0.825,0.206c0.341,0.089,0.7,0.21,1.08,0.364
		c0.38,0.154,0.762,0.352,1.143,0.595c0.38,0.243,0.728,0.543,1.044,0.899c0.314,0.356,0.57,0.781,0.765,1.274
		c0.194,0.494,0.291,1.065,0.291,1.712c0,0.794-0.154,1.53-0.462,2.21c-0.307,0.68-0.764,1.267-1.371,1.761
		c-0.606,0.493-1.359,0.882-2.258,1.165c-0.899,0.283-1.939,0.425-3.121,0.425c-0.956,0-1.882-0.121-2.78-0.363
		c-0.898-0.243-1.688-0.615-2.367-1.117c-0.681-0.502-1.227-1.142-1.64-1.918c-0.413-0.777-0.611-1.7-0.595-2.769H85.775z"/>
	<path clip-path="url(#SVGID_4_)" fill="#12110C" d="M106.147,29.563c-0.227-1.441-1.077-2.161-2.55-2.161
		c-0.55,0-1.012,0.125-1.384,0.376s-0.676,0.575-0.91,0.972c-0.235,0.396-0.401,0.837-0.498,1.323s-0.146,0.955-0.146,1.408
		c0,0.454,0.049,0.915,0.146,1.385c0.097,0.469,0.255,0.895,0.474,1.274c0.219,0.381,0.514,0.691,0.886,0.935
		c0.373,0.243,0.825,0.364,1.359,0.364c0.811,0,1.441-0.23,1.896-0.692c0.452-0.461,0.735-1.08,0.85-1.857h3.326
		c-0.227,1.667-0.874,2.942-1.943,3.824c-1.067,0.884-2.436,1.324-4.103,1.324c-0.956,0-1.822-0.158-2.598-0.474
		c-0.778-0.316-1.442-0.761-1.991-1.335c-0.551-0.575-0.98-1.255-1.288-2.04s-0.461-1.647-0.461-2.586
		c0-0.972,0.142-1.874,0.425-2.708c0.283-0.834,0.7-1.554,1.251-2.161c0.55-0.607,1.222-1.081,2.015-1.42
		c0.793-0.34,1.7-0.511,2.721-0.511c0.743,0,1.46,0.098,2.148,0.292s1.299,0.49,1.833,0.886c0.534,0.397,0.976,0.895,1.323,1.494
		c0.348,0.599,0.547,1.295,0.595,2.088H106.147z"/>
	<path clip-path="url(#SVGID_4_)" fill="#12110C" d="M110.203,20.359h3.448v6.532h0.072c0.438-0.712,0.996-1.238,1.676-1.578
		c0.68-0.34,1.344-0.51,1.991-0.51c0.923,0,1.68,0.126,2.271,0.376c0.591,0.251,1.056,0.599,1.396,1.044
		c0.341,0.446,0.578,0.988,0.718,1.627c0.137,0.64,0.206,1.348,0.206,2.125v7.722h-3.448v-7.09c0-1.037-0.166-1.81-0.498-2.32
		c-0.332-0.509-0.903-0.764-1.712-0.764c-0.939,0-1.619,0.279-2.039,0.837c-0.422,0.559-0.632,1.478-0.632,2.756v6.582h-3.448
		V20.359z"/>
	<path clip-path="url(#SVGID_4_)" fill="#12110C" d="M126.229,32.901c0.097,0.478,0.263,0.907,0.498,1.287
		c0.233,0.38,0.546,0.684,0.935,0.91s0.874,0.34,1.456,0.34c0.583,0,1.073-0.113,1.469-0.34c0.397-0.227,0.714-0.53,0.948-0.91
		s0.4-0.81,0.497-1.287c0.097-0.478,0.146-0.967,0.146-1.469s-0.05-0.996-0.146-1.482c-0.097-0.485-0.263-0.914-0.497-1.286
		c-0.234-0.373-0.551-0.676-0.948-0.911c-0.396-0.234-0.886-0.352-1.469-0.352c-0.582,0-1.067,0.118-1.456,0.352
		c-0.389,0.235-0.701,0.538-0.935,0.911c-0.235,0.372-0.401,0.801-0.498,1.286c-0.098,0.486-0.146,0.98-0.146,1.482
		S126.132,32.423,126.229,32.901 M123.097,28.7c0.307-0.817,0.744-1.513,1.312-2.089c0.566-0.574,1.246-1.019,2.039-1.335
		c0.793-0.316,1.685-0.474,2.671-0.474c0.988,0,1.882,0.158,2.685,0.474c0.801,0.316,1.484,0.761,2.052,1.335
		c0.565,0.576,1.003,1.272,1.311,2.089c0.308,0.818,0.461,1.728,0.461,2.732s-0.153,1.91-0.461,2.719s-0.745,1.502-1.311,2.077
		c-0.567,0.573-1.251,1.019-2.052,1.335c-0.803,0.315-1.696,0.474-2.685,0.474c-0.986,0-1.878-0.158-2.671-0.474
		c-0.793-0.316-1.473-0.762-2.039-1.335c-0.567-0.575-1.005-1.268-1.312-2.077c-0.308-0.81-0.461-1.715-0.461-2.719
		S122.789,29.518,123.097,28.7"/>
	<path clip-path="url(#SVGID_4_)" fill="#12110C" d="M139.852,32.901c0.098,0.478,0.263,0.907,0.497,1.287
		c0.235,0.38,0.547,0.684,0.936,0.91s0.874,0.34,1.457,0.34s1.073-0.113,1.469-0.34c0.397-0.227,0.712-0.53,0.947-0.91
		c0.234-0.38,0.4-0.81,0.498-1.287c0.097-0.478,0.146-0.967,0.146-1.469s-0.049-0.996-0.146-1.482
		c-0.098-0.485-0.264-0.914-0.498-1.286c-0.235-0.373-0.55-0.676-0.947-0.911c-0.396-0.234-0.886-0.352-1.469-0.352
		s-1.068,0.118-1.457,0.352c-0.389,0.235-0.7,0.538-0.936,0.911c-0.234,0.372-0.399,0.801-0.497,1.286
		c-0.098,0.486-0.146,0.98-0.146,1.482S139.754,32.423,139.852,32.901 M136.719,28.7c0.308-0.817,0.744-1.513,1.312-2.089
		c0.566-0.574,1.247-1.019,2.04-1.335c0.793-0.316,1.683-0.474,2.671-0.474c0.987,0,1.882,0.158,2.684,0.474
		c0.801,0.316,1.484,0.761,2.052,1.335c0.566,0.576,1.004,1.272,1.312,2.089c0.307,0.818,0.461,1.728,0.461,2.732
		s-0.154,1.91-0.461,2.719c-0.308,0.81-0.745,1.502-1.312,2.077c-0.567,0.573-1.251,1.019-2.052,1.335
		c-0.802,0.315-1.696,0.474-2.684,0.474c-0.988,0-1.878-0.158-2.671-0.474c-0.793-0.316-1.474-0.762-2.04-1.335
		c-0.567-0.575-1.004-1.268-1.312-2.077c-0.307-0.81-0.461-1.715-0.461-2.719S136.412,29.518,136.719,28.7"/>
</g>
<rect x="150.244" y="20.359" fill="#12110C" width="3.449" height="17.338"/>
<g>
	<defs>
		<rect id="SVGID_5_" y="0" width="168.189" height="66.113"/>
	</defs>
	<clipPath id="SVGID_6_">
		<use xlink:href="#SVGID_5_"  overflow="visible"/>
	</clipPath>
	<path clip-path="url(#SVGID_6_)" fill="#12110C" d="M157.748,33.617c0,0.373,0.076,0.692,0.229,0.959
		c0.154,0.268,0.354,0.486,0.596,0.656s0.521,0.296,0.838,0.376c0.315,0.081,0.644,0.122,0.983,0.122
		c0.243,0,0.498-0.028,0.765-0.085c0.268-0.058,0.51-0.146,0.729-0.268c0.218-0.122,0.4-0.283,0.547-0.485
		c0.146-0.202,0.218-0.457,0.218-0.766c0-0.259-0.089-0.481-0.267-0.668c-0.179-0.186-0.433-0.352-0.765-0.497
		c-0.332-0.146-0.741-0.28-1.227-0.401c-0.485-0.122-1.037-0.247-1.651-0.377c-0.502-0.113-0.992-0.246-1.47-0.4
		c-0.477-0.154-0.901-0.356-1.274-0.607c-0.372-0.251-0.671-0.567-0.898-0.947c-0.227-0.381-0.34-0.846-0.34-1.397
		c0-0.792,0.158-1.452,0.473-1.979c0.316-0.526,0.733-0.938,1.251-1.238c0.519-0.3,1.102-0.51,1.748-0.632
		c0.648-0.121,1.313-0.182,1.991-0.182c0.68,0,1.34,0.066,1.98,0.195c0.639,0.13,1.21,0.348,1.712,0.655
		c0.501,0.308,0.918,0.717,1.25,1.227c0.332,0.509,0.529,1.153,0.595,1.93h-3.278c-0.048-0.663-0.3-1.113-0.753-1.347
		c-0.453-0.235-0.986-0.353-1.603-0.353c-0.194,0-0.404,0.013-0.631,0.037c-0.228,0.024-0.434,0.077-0.619,0.158
		c-0.187,0.081-0.344,0.198-0.474,0.352s-0.194,0.36-0.194,0.619c0,0.308,0.113,0.558,0.34,0.753
		c0.226,0.194,0.521,0.352,0.886,0.473c0.365,0.122,0.781,0.231,1.251,0.328c0.47,0.097,0.947,0.203,1.434,0.316
		c0.501,0.113,0.99,0.251,1.469,0.412c0.477,0.162,0.902,0.377,1.275,0.644c0.371,0.267,0.671,0.599,0.897,0.996
		c0.228,0.397,0.34,0.886,0.34,1.469c0,0.825-0.166,1.518-0.498,2.076c-0.332,0.558-0.765,1.008-1.299,1.347
		c-0.535,0.341-1.145,0.583-1.833,0.729c-0.688,0.146-1.389,0.219-2.101,0.219c-0.729,0-1.441-0.073-2.138-0.219
		c-0.695-0.146-1.314-0.392-1.856-0.74c-0.543-0.349-0.988-0.806-1.336-1.373c-0.349-0.565-0.538-1.262-0.57-2.088H157.748z"/>
</g>
<polygon fill="#888584" points="83.371,40.306 85.823,40.306 94.953,54.365 95.002,54.365 95.002,40.306 97.188,40.306 
	97.188,57.644 94.662,57.644 85.605,43.729 85.557,43.729 85.557,57.644 83.371,57.644 "/>
<g>
	<defs>
		<rect id="SVGID_7_" y="0" width="168.189" height="66.113"/>
	</defs>
	<clipPath id="SVGID_8_">
		<use xlink:href="#SVGID_7_"  overflow="visible"/>
	</clipPath>
	<path clip-path="url(#SVGID_8_)" fill="#888584" d="M109.62,45.381c-0.13-1.246-0.579-2.149-1.348-2.708
		c-0.77-0.559-1.753-0.837-2.95-0.837c-0.486,0-0.964,0.049-1.433,0.146c-0.471,0.097-0.887,0.259-1.25,0.485
		c-0.365,0.227-0.656,0.53-0.875,0.911c-0.218,0.38-0.328,0.854-0.328,1.42c0,0.534,0.158,0.968,0.474,1.3
		c0.316,0.332,0.737,0.603,1.263,0.813s1.121,0.385,1.785,0.522c0.663,0.138,1.344,0.288,2.039,0.449
		c0.696,0.162,1.376,0.352,2.04,0.57s1.255,0.515,1.773,0.887c0.518,0.373,0.935,0.846,1.25,1.421
		c0.315,0.573,0.473,1.283,0.473,2.125c0,0.922-0.205,1.711-0.619,2.367c-0.412,0.655-0.942,1.189-1.59,1.603
		c-0.647,0.412-1.372,0.716-2.173,0.91c-0.802,0.193-1.599,0.292-2.392,0.292c-0.973,0-1.891-0.122-2.757-0.364
		c-0.865-0.243-1.627-0.616-2.282-1.117c-0.656-0.502-1.174-1.137-1.555-1.906c-0.38-0.769-0.57-1.68-0.57-2.732h2.186
		c0,0.729,0.142,1.356,0.425,1.882c0.283,0.527,0.655,0.959,1.117,1.299c0.461,0.34,0.995,0.593,1.603,0.753
		c0.607,0.162,1.242,0.243,1.906,0.243c0.519,0,1.04-0.048,1.566-0.146s0.999-0.264,1.42-0.497c0.421-0.235,0.761-0.556,1.021-0.959
		c0.258-0.405,0.388-0.923,0.388-1.555c0-0.599-0.158-1.085-0.474-1.458c-0.315-0.371-0.733-0.675-1.251-0.909
		c-0.518-0.235-1.109-0.43-1.772-0.583c-0.663-0.154-1.344-0.304-2.04-0.449c-0.696-0.146-1.376-0.32-2.039-0.522
		c-0.664-0.203-1.26-0.474-1.785-0.813s-0.947-0.77-1.263-1.287c-0.315-0.519-0.473-1.173-0.473-1.967
		c0-0.874,0.178-1.631,0.533-2.271c0.356-0.639,0.829-1.166,1.42-1.579c0.592-0.412,1.264-0.719,2.017-0.922
		c0.753-0.202,1.525-0.303,2.318-0.303c0.891,0,1.716,0.104,2.478,0.314c0.76,0.211,1.424,0.542,1.991,0.995
		c0.565,0.454,1.02,1.024,1.359,1.713s0.526,1.51,0.559,2.465H109.62z"/>
</g>
<polygon fill="#888584" points="129.41,57.644 127.006,57.644 123.048,43.074 123,43.074 118.993,57.644 116.589,57.644 
	112.146,40.306 114.501,40.306 117.9,54.729 117.949,54.729 121.834,40.306 124.335,40.306 128.172,54.729 128.221,54.729 
	131.742,40.306 134.049,40.306 "/>
<g>
	<defs>
		<rect id="SVGID_9_" y="0" width="168.189" height="66.113"/>
	</defs>
	<clipPath id="SVGID_10_">
		<use xlink:href="#SVGID_9_"  overflow="visible"/>
	</clipPath>
	<path clip-path="url(#SVGID_10_)" fill="#3EA9E0" d="M63.823,17.541c-5.98,1.624-15.683,3.36-30.035,3.468
		c-0.098,4.935-0.108,10.452,0.021,16.563c0.16,7.608-0.709,14.227-2.02,19.746c7.051,3.324,13.562,6.243,19.508,8.796
		c-0.696-7.02-1.095-19.467,6.636-34.82C60.385,26.422,62.119,21.734,63.823,17.541"/>
	<path clip-path="url(#SVGID_10_)" fill="#253473" d="M33.939,15.6c14.34,0.615,24.597,0.229,30.751-0.213
		c2.233-5.592,3.316-9.291,4.349-14.317c-8.56,1.324-19.147,2.073-34.35,1.536C34.395,6.181,34.121,10.508,33.939,15.6"/>
	<path clip-path="url(#SVGID_10_)" fill="#C71618" d="M28.444,20.976c-2.05-0.041-4.182-0.113-6.401-0.222
		C12.423,20.279,5.685,20.49,0,21.95v23.973c9.106,1.421,16.947,4.005,27.401,9.313c0.124-3.004,0.147-6.304,0.092-9.984
		C27.354,35.807,27.752,27.761,28.444,20.976"/>
	<path clip-path="url(#SVGID_10_)" fill="#F9AF05" d="M24.567,2.063C14.33,1.334,6.571,1.25,0,2.18v17.94
		c5.885-2.624,15.864-5.494,29.081-4.76c0.013,0.001,0.024,0.002,0.037,0.002c0.715-5.144,1.591-9.409,2.48-12.884
		C29.331,2.373,26.988,2.235,24.567,2.063"/>
</g>
</svg>
