<?xml version="1.0" encoding="utf-8"?>
<!-- Generator: Adobe Illustrator 16.0.0, SVG Export Plug-In . SVG Version: 6.00 Build 0)  -->
<!DOCTYPE svg PUBLIC "-//W3C//DTD SVG 1.1//EN" "http://www.w3.org/Graphics/SVG/1.1/DTD/svg11.dtd">
<svg version="1.1" id="Layer_1" xmlns="http://www.w3.org/2000/svg" xmlns:xlink="http://www.w3.org/1999/xlink" x="0px" y="0px"
	 width="620px" height="593.304px" viewBox="0 0 620 593.304" enable-background="new 0 0 620 593.304" xml:space="preserve">
<g>
	<defs>
		
			<rect id="SVGID_1_" x="70" y="0" transform="matrix(-0.9613 -0.2756 0.2756 -0.9613 524.3123 666.9919)" width="478.051" height="593.304"/>
	</defs>
	<clipPath id="SVGID_2_">
		<use xlink:href="#SVGID_1_"  overflow="visible"/>
	</clipPath>
	<g clip-path="url(#SVGID_2_)">
		<defs>
			
				<rect id="SVGID_3_" x="70" y="-0.001" transform="matrix(-0.0349 0.9994 -0.9994 -0.0349 616.2821 -1.832)" width="478.051" height="593.305"/>
		</defs>
		<clipPath id="SVGID_4_">
			<use xlink:href="#SVGID_3_"  overflow="visible"/>
		</clipPath>
		<path clip-path="url(#SVGID_4_)" fill="#D3CBCB" d="M294.717,277.976c-4.078-0.333-8.207-0.063-12.264,0.559
			c-4.06,0.633-8.074,1.61-11.99,2.896c-3.915,1.292-7.744,2.869-11.43,4.744c-3.679,1.889-7.222,4.047-10.603,6.437
			c-6.785,4.759-12.86,10.496-18.259,16.773c-5.42,6.271-10.089,13.159-14.181,20.339c-2.045,3.595-3.944,7.269-5.713,11
			c-0.883,1.869-1.708,3.761-2.533,5.652l-2.435,5.589c-3.301,7.429-6.854,14.743-10.649,21.93
			c-7.613,14.354-16.083,28.268-25.662,41.384c-9.583,13.1-20.137,25.516-31.903,36.689c-11.766,11.154-24.643,21.183-38.687,29.31
			c-3.502,2.044-7.093,3.932-10.713,5.758c-3.641,1.786-7.339,3.46-11.092,5.003c-7.522,3.039-15.251,5.597-23.147,7.538
			c-7.887,1.979-15.942,3.292-24.054,4.067c-8.115,0.734-16.291,0.914-24.458,0.575c16.283,1.433,32.829,0.466,48.89-3.01
			c16.072-3.429,31.59-9.461,45.97-17.476c14.378-8.039,27.682-17.959,39.703-29.204c12.045-11.23,22.91-23.689,32.625-36.958
			c9.716-13.271,18.425-27.268,26.032-41.835c3.814-7.277,7.381-14.682,10.693-22.2l2.442-5.654
			c0.798-1.856,1.596-3.714,2.449-5.546c1.677-3.677,3.474-7.296,5.416-10.835c7.764-14.118,17.84-27.133,30.714-36.913
			c3.205-2.447,6.58-4.673,10.103-6.646c3.504-2.007,7.171-3.741,10.949-5.202c3.779-1.456,7.681-2.617,11.661-3.444
			C286.571,278.513,290.626,277.896,294.717,277.976"/>
		<path clip-path="url(#SVGID_4_)" fill="#F8AE03" d="M213.105,347.297l26.293,14.405l-16.249,7.467l-10.863,14.34l-8.077-28.969
			C204.21,354.541,211.218,355.362,213.105,347.297"/>
		<g opacity="0.2" clip-path="url(#SVGID_4_)">
			<g>
				<defs>
					
						<rect id="SVGID_5_" x="198.498" y="358.874" transform="matrix(-0.0349 0.9994 -0.9994 -0.0349 589.2615 168.1391)" width="29.894" height="19.441"/>
				</defs>
				<clipPath id="SVGID_6_">
					<use xlink:href="#SVGID_5_"  overflow="visible"/>
				</clipPath>
				<path clip-path="url(#SVGID_6_)" fill="#A59D9D" d="M209.717,353.507l13.434,15.662l-10.862,14.34l-8.078-28.969
					C204.21,354.541,205.365,356.358,209.717,353.507"/>
			</g>
		</g>
		<path clip-path="url(#SVGID_4_)" fill="#F8AE03" d="M203.843,335.816l-8.406-28.599l-10.752,14.277l-16.292,7.607l26.491,13.879
			C194.883,342.981,195.583,335.981,203.843,335.816"/>
		<g opacity="0.2" clip-path="url(#SVGID_4_)">
			<g>
				<defs>
					
						<rect id="SVGID_7_" x="172.756" y="316.998" transform="matrix(-0.0349 0.9994 -0.9994 -0.0349 521.5155 160.3876)" width="21.114" height="30.026"/>
				</defs>
				<clipPath id="SVGID_8_">
					<use xlink:href="#SVGID_7_"  overflow="visible"/>
				</clipPath>
				<path clip-path="url(#SVGID_8_)" fill="#A59D9D" d="M198.162,336.969l-13.476-15.474l-16.293,7.606l26.491,13.878
					C194.884,342.98,194.068,339.579,198.162,336.969"/>
			</g>
		</g>
		<path clip-path="url(#SVGID_4_)" fill="#FCDB8E" d="M197.492,337.656c-4.277,3.451-4.945,9.719-1.495,13.995
			c3.45,4.277,9.715,4.947,13.994,1.495c4.278-3.45,4.947-9.716,1.497-13.994C208.036,334.875,201.77,334.205,197.492,337.656"/>
		<path clip-path="url(#SVGID_4_)" fill="#C71618" d="M169.561,433.653l28.712,8.631l-14.344,10.678l-7.649,16.283l-13.917-26.66
			C162.364,442.584,169.39,441.931,169.561,433.653"/>
		<path clip-path="url(#SVGID_4_)" fill="#C71618" d="M158.117,424.344l-14.16-26.23l-7.553,16.198l-14.359,10.827l28.795,8.072
			C150.84,433.211,150.071,426.222,158.117,424.344"/>
		<g opacity="0.2" clip-path="url(#SVGID_4_)">
			<g>
				<defs>
					
						<rect id="SVGID_9_" x="158.307" y="443.555" transform="matrix(-0.0349 0.9994 -0.9994 -0.0349 633.1805 297.5646)" width="29.208" height="21.916"/>
				</defs>
				<clipPath id="SVGID_10_">
					<use xlink:href="#SVGID_9_"  overflow="visible"/>
				</clipPath>
				<path clip-path="url(#SVGID_10_)" fill="#A59D9D" d="M167.557,439.713l16.373,13.248l-7.649,16.283l-13.917-26.66
					C162.364,442.584,164.402,444.106,167.557,439.713"/>
			</g>
		</g>
		<g opacity="0.2" clip-path="url(#SVGID_4_)">
			<g>
				<defs>
					
						<rect id="SVGID_11_" x="128.602" y="407.876" transform="matrix(-0.0349 0.9994 -0.9994 -0.0349 565.9052 300.6329)" width="18.383" height="31.369"/>
				</defs>
				<clipPath id="SVGID_12_">
					<use xlink:href="#SVGID_11_"  overflow="visible"/>
				</clipPath>
				<path clip-path="url(#SVGID_12_)" fill="#A59D9D" d="M153.396,426.21l-16.992-11.897l-14.358,10.825l28.795,8.074
					C150.84,433.212,148.882,430.056,153.396,426.21"/>
			</g>
		</g>
		<path clip-path="url(#SVGID_4_)" fill="#E69697" d="M152.286,427.462c-3.467,4.264-2.82,10.534,1.442,14.001
			c4.264,3.469,10.533,2.821,14.001-1.442c3.467-4.265,2.821-10.533-1.443-14.001C162.023,422.552,155.753,423.199,152.286,427.462"
			/>
		<path clip-path="url(#SVGID_4_)" fill="#3EA8E0" d="M98.669,492.927l22.749,19.527l-17.438,3.948l-13.593,11.786l-1.921-30.013
			C88.467,498.176,95.156,500.427,98.669,492.927"/>
		<path clip-path="url(#SVGID_4_)" fill="#3EA8E0" d="M91.979,479.78l-2.316-29.718L76.193,461.81l-17.513,4.077l23.05,19.051
			C81.73,484.938,83.862,478.235,91.979,479.78"/>
		<g opacity="0.2" clip-path="url(#SVGID_4_)">
			<g>
				<defs>
					
						<rect id="SVGID_13_" x="80.534" y="504.812" transform="matrix(-0.0349 0.9994 -0.9994 -0.0349 611.9479 434.8036)" width="30.99" height="16.14"/>
				</defs>
				<clipPath id="SVGID_14_">
					<use xlink:href="#SVGID_13_"  overflow="visible"/>
				</clipPath>
				<path clip-path="url(#SVGID_14_)" fill="#A59D9D" d="M94.627,497.329l9.353,19.074l-13.593,11.786l-1.921-30.013
					C88.467,498.176,89.625,500.907,94.627,497.329"/>
			</g>
		</g>
		<g opacity="0.2" clip-path="url(#SVGID_4_)">
			<g>
				<defs>
					
						<rect id="SVGID_15_" x="60.736" y="459.376" transform="matrix(-0.0349 0.9994 -0.9994 -0.0349 547.5679 417.5146)" width="22.921" height="27.523"/>
				</defs>
				<clipPath id="SVGID_16_">
					<use xlink:href="#SVGID_15_"  overflow="visible"/>
				</clipPath>
				<path clip-path="url(#SVGID_16_)" fill="#A59D9D" d="M85.735,479.757l-9.542-17.947l-17.513,4.077l23.051,19.05
					C81.731,484.937,82.154,482.009,85.735,479.757"/>
			</g>
		</g>
		<path clip-path="url(#SVGID_4_)" fill="#A4D6F0" d="M85.385,480.268c-4.897,2.492-6.848,8.486-4.356,13.384
			c2.493,4.897,8.485,6.847,13.384,4.354c4.898-2.492,6.848-8.485,4.355-13.382C96.275,479.724,90.282,477.775,85.385,480.268"/>
		<path clip-path="url(#SVGID_4_)" fill="#3EA8E0" d="M279.209,287.445l22.768,19.505l-17.437,3.967l-13.58,11.797l-1.948-30.011
			C269.012,292.702,275.705,294.947,279.209,287.445"/>
		<path clip-path="url(#SVGID_4_)" fill="#3EA8E0" d="M272.505,274.303l-2.343-29.716l-13.458,11.761l-17.509,4.097l23.069,19.026
			C262.264,279.471,264.388,272.767,272.505,274.303"/>
		<g opacity="0.2" clip-path="url(#SVGID_4_)">
			<g>
				<defs>
					
						<rect id="SVGID_17_" x="240.578" y="254.566" transform="matrix(-0.0349 0.9994 -0.9994 -0.0349 527.8084 25.0856)" width="22.428" height="25.664"/>
				</defs>
				<clipPath id="SVGID_18_">
					<use xlink:href="#SVGID_17_"  overflow="visible"/>
				</clipPath>
				<polygon clip-path="url(#SVGID_18_)" fill="#A59D9D" points="261.725,278.964 264.339,275.741 256.704,256.347 239.194,260.443 
									"/>
			</g>
		</g>
		<path clip-path="url(#SVGID_4_)" fill="#91CEED" d="M265.913,274.796c-4.896,2.498-6.838,8.494-4.342,13.389
			c2.498,4.896,8.491,6.839,13.388,4.341c4.895-2.497,6.839-8.49,4.341-13.387C276.803,274.244,270.808,272.301,265.913,274.796"/>
		<g opacity="0.2" clip-path="url(#SVGID_4_)">
			<g>
				<defs>
					
						<rect id="SVGID_19_" x="261.416" y="299.668" transform="matrix(-0.0349 0.9994 -0.9994 -0.0349 593.7795 42.0842)" width="30.307" height="16.156"/>
				</defs>
				<clipPath id="SVGID_20_">
					<use xlink:href="#SVGID_19_"  overflow="visible"/>
				</clipPath>
				<polygon clip-path="url(#SVGID_20_)" fill="#A59D9D" points="284.541,310.915 274.958,292.526 269.012,292.702 270.961,322.713 
									"/>
			</g>
		</g>
		<polygon clip-path="url(#SVGID_4_)" fill="#C71618" points="470.94,168.878 609.794,85.982 537.224,279.906 531.748,270.737 		"/>
		<polygon clip-path="url(#SVGID_4_)" fill="#FCFCFC" points="531.749,270.737 470.939,168.878 470.94,168.878 		"/>
		<polygon clip-path="url(#SVGID_4_)" fill="#253473" points="406.585,61.08 607.269,82.83 468.891,165.442 		"/>
		<polygon clip-path="url(#SVGID_4_)" fill="#FCFCFC" points="470.939,168.878 470.939,168.876 469.915,167.159 468.891,165.442 
			607.27,82.83 610.828,83.218 609.794,85.982 470.94,168.878 		"/>
		<polygon clip-path="url(#SVGID_4_)" fill="#F8AE03" points="467.506,170.927 533.662,281.746 285.846,279.378 422.559,197.761 		
			"/>
		<polygon clip-path="url(#SVGID_4_)" fill="#FCFCFC" points="422.559,197.76 470.94,168.877 470.939,168.878 531.749,270.737 
			537.223,279.907 536.525,281.773 533.663,281.747 467.505,170.927 		"/>
		<polygon clip-path="url(#SVGID_4_)" fill="#3EA8E0" points="284.065,275.782 402.891,62.695 465.455,167.493 		"/>
		<polygon clip-path="url(#SVGID_4_)" fill="#FCFCFC" points="284.065,275.782 465.455,167.493 402.891,62.695 403.951,60.795 
			406.585,61.08 468.89,165.441 469.915,167.16 470.939,168.877 422.559,197.76 285.845,279.377 282.079,279.342 		"/>
		<g opacity="0.2" clip-path="url(#SVGID_4_)">
			<g>
				<defs>
					
						<rect id="SVGID_21_" x="302.033" y="45.629" transform="matrix(-0.0349 0.9994 -0.9994 -0.0349 600.1923 -233.9643)" width="222.063" height="254.376"/>
				</defs>
				<clipPath id="SVGID_22_">
					<use xlink:href="#SVGID_21_"  overflow="visible"/>
				</clipPath>
				<polygon clip-path="url(#SVGID_22_)" fill="#A59D9D" points="536.525,281.773 339.56,243.264 405.944,61.471 282.079,279.341 
									"/>
			</g>
		</g>
		<g opacity="0.2" clip-path="url(#SVGID_4_)">
			<g>
				<defs>
					
						<rect id="SVGID_23_" x="532.241" y="88.496" transform="matrix(-0.0349 0.9994 -0.9994 -0.0349 720.4861 -450.1061)" width="90.668" height="68.668"/>
				</defs>
				<clipPath id="SVGID_24_">
					<use xlink:href="#SVGID_23_"  overflow="visible"/>
				</clipPath>
				<polyline clip-path="url(#SVGID_24_)" fill="#A59D9D" points="610.829,83.217 578.989,168.242 589.45,97.896 544.843,76.326 
					613.306,83.387 				"/>
			</g>
		</g>
	</g>
</g>
</svg>
